﻿,Single Family Housing Units,Multi-Family Housing Units
2015 Baseline,42652,51919
2045 Business-as-Usual Scenario,63526,52187
2045 Preferred Scenario,55542,60171
2045 Preferred Scenario + HSR,56266,60955
