,2011-2013,2012-2014,2013-2015,2011,2012,2013,2014,2015
2012 NAAQS 24-Hr Standard,35,35,35,35,35,35,35,35
Champaign,22.4,22.0,21.2,24.7,20.1,22.3,23.6,18.8
Bondville,22.8,21.2,19.0,25.3,19.4,23.8,20.4,17.6
