Name,Segment ID,2010, 2014, 2018
Copper Slough,IL_OZYA,No,No,Yes
Embarras River,IL_BE-25*,No,Yes,Yes
Sangamon River,IL_E-29,Yes,Yes,Yes
Two Mile Slough,IL_OZZX-01,Yes,Yes,Yes
Boneyard Creek,IL_BPJCA,No,No,No
Hackett Branch,IL_BERB-TO-C1,No,No,No
Hackett Branch,IL_BERB-TO-C1A,No,No,No
Kaskaskia River,IL_O-35,Yes,Yes,No
Kaskaskia River,IL_O-37,No,No,No
Saline Branch,IL_BPJC-06,Yes,Yes,Yes
Saline Branch,IL_BPJC-08,No,No,No
Sangamon River,IL_E-29,Yes,Yes,Yes
