Municipality,2017 ACS Population Estimate,2017 EV,2018 EV
Champaign,57.9%,55.0%,58.3%
Urbana,28.5%,27.5%,23.7%
Savoy,5.8%,10.0%,8.6%
Tolono,2.0%,0.0%,0.7%
Bondville,0.3%,0.0%,0.0%
Mahomet,5.5%,7.5%,8.6%
