﻿Year,Number of Rides
2007,"8,177,688"
2008,"9,784,291"
2009,"9,888,384"
2010,"10,494,624"
2011,"10,819,308"
2012,"11,410,546"
2013,"12,694,610"
2014,"13,636,614"
2015,"12,124,835"
2016,"12,486,862"
2017,"11,571,438"
2018,"11,806,525"
2019,"11,240,621"
2020,"4,928,893"
2021,"5,460,557"
2022,"7,672,932"
