Age,Female,Male,Unknown
0-4,0,2,0
5-9,3,6,0
10-14,3,12,0
15-19,16,19,0
20-24,23,29,0
25-29,6,14,0
30-34,6,10,0
35-39,5,6,0
40-44,8,5,0
45-49,4,6,0
50-54,7,5,0
55-59,6,10,0
60-64,5,3,0
65-69,1,4,0
70-74,0,2,0
75-79,3,1,0
80+,3,3,2