,Commodity Value Sum
Iowa,1169
Cook IL,1056
Indiana,994
Missouri,993
McLean IL,817
Wisconsin,595
Michigan,483
Ohio,479
Winnebago IL,431
Texas,395
Sangamon IL,361
Georgia,360
DuPage IL,356
Peoria IL,347
Kentucky,330
Rock Island IL,322
California,311
Tazewell IL,311
Tennessee,310
Macon IL,276
